5 
3 
1 3 4 
2 
2 5  

6
222 9 5.5 7 4 6
666 9 -1 9.5 4 -1
444 -1 9.75 9.75 5 -1
333  2 4  6 8 9.75
555  -1 9 -1 -1 8
111  9 0 9.75 9 0

escriure

no_presentats

posicio 444

modificar 4 4 5.75

consultar 4

escriure

fi