digraph "Estudiant.hh"
{
  edge [fontname="FreeSans",fontsize="10",labelfontname="FreeSans",labelfontsize="10"];
  node [fontname="FreeSans",fontsize="10",shape=record];
  Node0 [label="Estudiant.hh",height=0.2,width=0.4,color="black", fillcolor="grey75", style="filled", fontcolor="black"];
  Node0 -> Node1 [color="midnightblue",fontsize="10",style="solid",fontname="FreeSans"];
  Node1 [label="utils.PRO2",height=0.2,width=0.4,color="grey75", fillcolor="white", style="filled"];
}
