Primer estudiant:
111 5.25

Cua:
111 5.25
222 NP
333 4
444 0

La nota maxima es: 5.25

Primer estudiant:
111 5.25

Cua:
111 5.25
222 NP
333 4
444 0
555 6.5
666 NP
777 3.25

La nota maxima es: 6.5

Primer estudiant:
333 4

Cua:
333 4
444 0
555 6.5
666 NP
777 3.25

La nota maxima es: 6.5

Primer estudiant:
333 4

Cua:
333 4
444 0
555 6.5
666 NP
777 3.25
888 6
999 7.25
1000 NP

La nota maxima es: 7.25

Primer estudiant:
666 NP

Cua:
666 NP
777 3.25
888 6
999 7.25
1000 NP

La nota maxima es: 7.25

